// Jest Snapshot v1, https://goo.gl/fbAQLP

exports[`does component render 1`] = `
<DocumentFragment>
  <header
    class="MuiPaper-root MuiAppBar-root MuiAppBar-positionFixed sc-AxjAm JOfDT MuiAppBar-colorPrimary mui-fixed MuiPaper-elevation4"
  >
    <h1>
      Ideas Board
    </h1>
  </header>
</DocumentFragment>
`;
